module go-fiber-gorm

go 1.17

require (
	github.com/andybalholm/brotli v1.0.3 // indirect
	github.com/gofiber/fiber/v2 v2.21.0 // indirect
	github.com/jinzhu/inflection v1.0.0 // indirect
	github.com/jinzhu/now v1.1.2 // indirect
	github.com/klauspost/compress v1.13.6 // indirect
	github.com/mattn/go-sqlite3 v1.14.9 // indirect
	github.com/valyala/bytebufferpool v1.0.0 // indirect
	github.com/valyala/fasthttp v1.31.0 // indirect
	github.com/valyala/tcplisten v1.0.0 // indirect
	golang.org/x/sys v0.0.0-20211030160813-b3129d9d1021 // indirect
	gorm.io/driver/sqlite v1.2.3 // indirect
	gorm.io/gorm v1.22.2 // indirect
)
